error: unexpected end of input, Failed to parse one or more fields:
    --Missing attribute #[bits = ..] on field a

 --> $DIR/missing_bits.rs:3:1
  |
3 | #[bitpacked]
  | ^^^^^^^^^^^^
  |
  = note: this error originates in an attribute macro (in Nightly builds, run with -Z macro-backtrace for more info)
